%YAML 1.1
%TAG !u! tag:unity3d.com,2011:
--- !u!1045 &1
EditorBuildSettings:
  m_ObjectHideFlags: 0
  serializedVersion: 2
  m_Scenes:
  - enabled: 1
    path: Assets/Scenes/BoundarySetting.unity
    guid: 2cf54beb9c48bfb4f923fd85afe5c6b0
  - enabled: 1
    path: Assets/Scenes/MainMenu.unity
    guid: 2cda990e2423bbf4892e6590ba056729
  - enabled: 1
    path: Assets/Scenes/ShortExperience.unity
    guid: f82e7ed3132fed6488cd04d3ef87f57e
  - enabled: 1
    path: Assets/Scenes/Freestyle.unity
    guid: 55608ee749937374b89f9d6724b1a904
  - enabled: 1
    path: Assets/Scenes/F1.unity
    guid: 5860475c317a7694d8a6b1835ee1d6af
  m_configObjects: {}
